{
  "Coqtail": { "branch": "master", "commit": "ec80f3d48dcbf19209ef51d6020838cda5a1d46e" },
  "LuaSnip": { "branch": "master", "commit": "105b5f7f72c13e682a3aa5d29eac2408ae513b22" },
  "black-nvim": { "branch": "master", "commit": "8fb3efc562b67269e6f31f8653297f826534fa4b" },
  "cmp-buffer": { "branch": "main", "commit": "3022dbc9166796b644a841a02de8dd1cc1d311fa" },
  "cmp-cmdline": { "branch": "main", "commit": "8ee981b4a91f536f52add291594e89fb6645e451" },
  "cmp-nvim-lsp": { "branch": "main", "commit": "44b16d11215dce86f253ce0c30949813c0a90765" },
  "cmp-path": { "branch": "main", "commit": "91ff86cd9c29299a64f968ebb45846c485725f23" },
  "cmp-tabnine": { "branch": "main", "commit": "b93f82ef5150e578677fc2e2b4b328b19eed77e1" },
  "cmp_luasnip": { "branch": "master", "commit": "18095520391186d634a0045dacaa346291096566" },
  "copilot.vim": { "branch": "release", "commit": "172955782814a49fbebca2d1a2ccce2059103329" },
  "feline.nvim": { "branch": "master", "commit": "d48b6f92c6ccdd6654c956f437be49ea160b5b0c" },
  "flutter-tools.nvim": { "branch": "main", "commit": "5de1b5fca5e07849b2626c8aeda81d2ba6362af1" },
  "friendly-snippets": { "branch": "main", "commit": "c85153a188b260b908bc35ffedff64810a930b64" },
  "gitsigns.nvim": { "branch": "main", "commit": "a36bc3360d584d39b4fb076d855c4180842d4444" },
  "hop.nvim": { "branch": "master", "commit": "03f0434869f1f38868618198b5f4f2ab6d39aef2" },
  "indent-blankline.nvim": { "branch": "master", "commit": "7075d7861f7a6bbf0de0298c83f8a13195e6ec01" },
  "isort.nvim": { "branch": "master", "commit": "0617e6bf3823b36a5cb17c047dcee02c5b77b33c" },
  "julia-vim": { "branch": "master", "commit": "88ebda5043ec13a6e6f0ac20b279dc12ecc10311" },
  "lazy.nvim": { "branch": "main", "commit": "f8611632d0f9c6818e8eb54f9bcd1dad122b5a7f" },
  "lspkind-nvim": { "branch": "master", "commit": "57610d5ab560c073c465d6faf0c19f200cb67e6e" },
  "magma-nvim": { "branch": "main", "commit": "395b48e2e202d82fca76c15d2dcd8785c125d686" },
  "neoformat": { "branch": "master", "commit": "b35ae45f9425c817126be4cc946a950c1cffe6fa" },
  "nvcode-color-schemes.vim": { "branch": "master", "commit": "6d08a1910abbe71d1fc764ff040e6ba13d64fc32" },
  "nvim-autopairs": { "branch": "master", "commit": "e8f7dd7a72de3e7b6626c050a802000e69d53ff0" },
  "nvim-cmp": { "branch": "main", "commit": "2743dd989e9b932e1b4813a4927d7b84272a14e2" },
  "nvim-cokeline": { "branch": "main", "commit": "a7efa64386467114e386a0f19f4a6086a5650010" },
  "nvim-colorizer.lua": { "branch": "master", "commit": "36c610a9717cc9ec426a07c8e6bf3b3abcb139d6" },
  "nvim-comment": { "branch": "main", "commit": "e9ac16ab056695cad6461173693069ec070d2b23" },
  "nvim-lsp": { "branch": "master", "commit": "0011c435282f043a018e23393cae06ed926c3f4a" },
  "nvim-lspconfig": { "branch": "master", "commit": "0011c435282f043a018e23393cae06ed926c3f4a" },
  "nvim-reload": { "branch": "master", "commit": "7c1ab3f4c6ab3c6875aec5a946c7ce068fba75f7" },
  "nvim-tree.lua": { "branch": "master", "commit": "4af572246ce49883e2a52c49203a19984454f2e0" },
  "nvim-treesitter": { "branch": "master", "commit": "254f3da6832252d579962ca6dcafae9c164de4ed" },
  "nvim-ts-autotag": { "branch": "main", "commit": "6be1192965df35f94b8ea6d323354f7dc7a557e4" },
  "nvim-ts-context-commentstring": { "branch": "main", "commit": "7f625207f225eea97ef7a6abe7611e556c396d2f" },
  "nvim-ts-rainbow": { "branch": "master", "commit": "ef95c15a935f97c65a80e48e12fe72d49aacf9b9" },
  "nvim-web-devicons": { "branch": "master", "commit": "9ab9b0b894b2388a9dbcdee5f00ce72e25d85bf9" },
  "omnisharp-vim": { "branch": "master", "commit": "5ce267481d79d1dc5f7fb2c96ef74e71910b7024" },
  "playground": { "branch": "master", "commit": "2b81a018a49f8e476341dfcb228b7b808baba68b" },
  "plenary.nvim": { "branch": "master", "commit": "102c02903c74b93c705406bf362049383abc87c8" },
  "popfix": { "branch": "master", "commit": "bf3cc436df63cd535350d5ef1b951c91554d4b01" },
  "popup.nvim": { "branch": "master", "commit": "b7404d35d5d3548a82149238289fa71f7f6de4ac" },
  "telescope.nvim": { "branch": "master", "commit": "0e0600908d1ad5ac4992fa0ab578e23e9d9d6f37" },
  "vim-arduino": { "branch": "master", "commit": "111db616db21d4f925691f1517792953f7671647" },
  "vim-devicons": { "branch": "master", "commit": "71f239af28b7214eebb60d4ea5bd040291fb7e33" },
  "vim-dispatch": { "branch": "master", "commit": "6cc2691576f97d43f8751664d1a1a908b99927e5" },
  "vim-fountain": { "branch": "master", "commit": "4464261ce6f173e5c2dab54b34a2860102c27d25" },
  "vim-matchup": { "branch": "master", "commit": "61cef7921ecbb412f341a6d1a7f9ad1ca55243de" },
  "vim-polyglot": { "branch": "master", "commit": "bc8a81d3592dab86334f27d1d43c080ebf680d42" }
}